[
  [
    {
      "id": 329,
      "data": 0,
      "amountMax": 1,
      "amountMin": 1,
      "lore": [],
      "enchantments": []
    },
    0.01
  ],
  [
    {
      "id": 403,
      "data": 0,
      "amountMax": 1,
      "amountMin": 1,
      "lore": [],
      "enchantments": [
        "LOOT_BONUS_MOBS#3",
        "FIRE_ASPECT#2",
        "KNOCKBACK#1"
      ]
    },
    0.01
  ],
  [
    {
      "id": 341,
      "data": 0,
      "amountMax": 6,
      "amountMin": 1,
      "lore": [],
      "enchantments": []
    },
    0.01
  ],
  [
    {
      "id": 322,
      "data": 0,
      "amountMax": 4,
      "amountMin": 1,
      "lore": [],
      "enchantments": []
    },
    0.05
  ],
  [
    {
      "id": 116,
      "data": 0,
      "amountMax": 1,
      "amountMin": 1,
      "lore": [],
      "enchantments": []
    },
    0.06
  ],
  [
    {
      "id": 421,
      "data": 0,
      "amountMax": 1,
      "amountMin": 1,
      "lore": [],
      "enchantments": []
    },
    0.005
  ],
  [
    {
      "id": 289,
      "data": 0,
      "amountMax": 16,
      "amountMin": 1,
      "lore": [],
      "enchantments": []
    },
    0.1
  ],
  [
    {
      "id": 276,
      "data": 0,
      "amountMax": 2,
      "amountMin": 1,
      "lore": [],
      "enchantments": [
        "DAMAGE_ALL#3",
        "FIRE_ASPECT#1",
        "LOOT_BONUS_MOBS#4"
      ]
    },
    0.012
  ],
  [
    {
      "id": 417,
      "data": 0,
      "amountMax": 1,
      "amountMin": 1,
      "lore": [],
      "enchantments": []
    },
    0.01
  ],
  [
    {
      "id": 383,
      "data": 50,
      "amountMax": 1,
      "amountMin": 1,
      "lore": [],
      "enchantments": []
    },
    0.001
  ],
  [
    {
      "id": 403,
      "data": 0,
      "amountMax": 1,
      "amountMin": 1,
      "lore": [],
      "enchantments": [
        "LOOT_BONUS_BLOCKS#3"
      ]
    },
    0.05
  ],
  [
    {
      "id": 388,
      "data": 0,
      "amountMax": 5,
      "amountMin": 1,
      "lore": [],
      "enchantments": []
    },
    0.06
  ],
  [
    {
      "id": 403,
      "data": 0,
      "amountMax": 1,
      "amountMin": 1,
      "lore": [],
      "enchantments": [
        "SILK_TOUCH#1"
      ]
    },
    0.05
  ],
  [
    {
      "id": 403,
      "data": 0,
      "amountMax": 1,
      "amountMin": 1,
      "lore": [],
      "enchantments": [
        "PROTECTION_ENVIRONMENTAL#4",
        "DURABILITY#3"
      ]
    },
    0.01
  ],
  [
    {
      "id": 46,
      "data": 0,
      "amountMax": 4,
      "amountMin": 1,
      "lore": [],
      "enchantments": []
    },
    0.1
  ],
  [
    {
      "id": 331,
      "data": 0,
      "amountMax": 10,
      "amountMin": 1,
      "lore": [],
      "enchantments": []
    },
    0.15
  ],
  [
    {
      "id": 384,
      "data": 0,
      "amountMax": 10,
      "amountMin": 1,
      "lore": [],
      "enchantments": []
    },
    0.1
  ],
  [
    {
      "id": 264,
      "data": 0,
      "amountMax": 5,
      "amountMin": 1,
      "lore": [],
      "enchantments": []
    },
    0.03
  ],
  [
    {
      "id": 322,
      "data": 1,
      "amountMax": 1,
      "amountMin": 1,
      "lore": [],
      "enchantments": []
    },
    0.02
  ],
  [
    {
      "id": 276,
      "data": 0,
      "amountMax": 2,
      "amountMin": 1,
      "lore": [],
      "enchantments": [
        "DAMAGE_ALL#5"
      ]
    },
    0.01
  ],
  [
    {
      "id": 396,
      "data": 0,
      "amountMax": 4,
      "amountMin": 1,
      "lore": [],
      "enchantments": []
    },
    0.06
  ],
  [
    {
      "id": 403,
      "data": 0,
      "amountMax": 1,
      "amountMin": 1,
      "lore": [],
      "enchantments": [
        "DAMAGE_ALL#3"
      ]
    },
    0.05
  ],
  [
    {
      "id": 419,
      "data": 0,
      "amountMax": 1,
      "amountMin": 1,
      "lore": [],
      "enchantments": []
    },
    0.05
  ]
]