{
  "priority": 15000,
  "name": "deposit",
  "desc": "déposer de la money",
  "standard": [
    "LEADER",
    "OFFICER",
    "MEMBER",
    "RECRUIT",
    "ALLY",
    "TRUCE",
    "NEUTRAL",
    "ENEMY"
  ],
  "territory": false,
  "editable": false,
  "visible": false
}