{
  "priority": 3000,
  "name": "animals",
  "desc": "Les animaux peuvent-ils spawn dans les claims?",
  "descYes": "Les animaux peuvent spawn.",
  "descNo": "Aucun animal ne peut spawn.",
  "standard": true,
  "editable": true,
  "visible": true
}