{
  "priority": 11000,
  "name": "zombiegrief",
  "desc": "Les zombies peuvent-ils détruires les portes dans les claims?",
  "descYes": "Les zombies peuvent détruire des portes.",
  "descNo": "Portes résistanes aux zombies.",
  "standard": false,
  "editable": false,
  "visible": true
}