{
  "name": "Zone de Paix",
  "description": "Pas de PVP ni de monstres :)",
  "createdAtMillis": 1589317065335,
  "flags": {
    "open": false,
    "permanent": true,
    "peaceful": true,
    "infpower": true,
    "powerloss": false,
    "pvp": false,
    "friendlyfire": false,
    "monsters": false,
    "animals": true,
    "explosions": false,
    "offlineexplosions": false,
    "firespread": false,
    "endergrief": false,
    "zombiegrief": false
  },
  "perms": {
    "build": [
      "LEADER",
      "OFFICER",
      "MEMBER"
    ],
    "painbuild": [],
    "door": [
      "NEUTRAL",
      "TRUCE",
      "OFFICER",
      "ALLY",
      "LEADER",
      "MEMBER",
      "ENEMY",
      "RECRUIT"
    ],
    "button": [
      "NEUTRAL",
      "TRUCE",
      "OFFICER",
      "ALLY",
      "LEADER",
      "MEMBER",
      "ENEMY",
      "RECRUIT"
    ],
    "lever": [
      "NEUTRAL",
      "TRUCE",
      "OFFICER",
      "ALLY",
      "LEADER",
      "MEMBER",
      "ENEMY",
      "RECRUIT"
    ],
    "container": [
      "NEUTRAL",
      "TRUCE",
      "OFFICER",
      "ALLY",
      "LEADER",
      "MEMBER",
      "ENEMY",
      "RECRUIT"
    ],
    "name": [
      "LEADER"
    ],
    "desc": [
      "LEADER",
      "OFFICER"
    ],
    "motd": [
      "LEADER",
      "OFFICER"
    ],
    "invite": [
      "LEADER",
      "OFFICER"
    ],
    "kick": [
      "LEADER",
      "OFFICER"
    ],
    "title": [
      "LEADER",
      "OFFICER"
    ],
    "home": [
      "LEADER",
      "OFFICER",
      "MEMBER",
      "RECRUIT",
      "ALLY"
    ],
    "sethome": [
      "LEADER",
      "OFFICER"
    ],
    "deposit": [
      "LEADER",
      "OFFICER",
      "MEMBER",
      "RECRUIT",
      "ALLY",
      "TRUCE",
      "NEUTRAL",
      "ENEMY"
    ],
    "withdraw": [
      "LEADER"
    ],
    "territory": [
      "OFFICER",
      "LEADER",
      "MEMBER"
    ],
    "access": [
      "LEADER",
      "OFFICER"
    ],
    "claimnear": [
      "LEADER",
      "OFFICER",
      "MEMBER",
      "RECRUIT",
      "ALLY"
    ],
    "rel": [
      "LEADER",
      "OFFICER"
    ],
    "disband": [
      "LEADER"
    ],
    "flags": [
      "LEADER"
    ],
    "perms": [
      "LEADER"
    ],
    "status": [
      "LEADER",
      "OFFICER"
    ]
  }
}